ST 558 Final Project - EDA
…
# read in data on diabetes
diabetes_data <- read_csv("diabetes_binary_health_indicators_BRFSS2015.csv")

Rows: 253680 Columns: 22
── Column specification ────────────────────────────────────────────────────────
Delimiter: ","
dbl (22): Diabetes_binary, HighBP, HighChol, CholCheck, BMI, Smoker, Stroke,...

ℹ Use `spec()` to retrieve the full column specification for this data.
ℹ Specify the column types or set `show_col_types = FALSE` to quiet this message.

# view the data and its structure after initially reading in
diabetes_data

# A tibble: 253,680 × 22
   Diabetes_binary HighBP HighChol CholCheck   BMI Smoker Stroke
             <dbl>  <dbl>    <dbl>     <dbl> <dbl>  <dbl>  <dbl>
 1               0      1        1         1    40      1      0
 2               0      0        0         0    25      1      0
 3               0      1        1         1    28      0      0
 4               0      1        0         1    27      0      0
 5               0      1        1         1    24      0      0
 6               0      1        1         1    25      1      0
 7               0      1        0         1    30      1      0
 8               0      1        1         1    25      1      0
 9               1      1        1         1    30      1      0
10               0      0        0         1    24      0      0
# ℹ 253,670 more rows
# ℹ 15 more variables: HeartDiseaseorAttack <dbl>, PhysActivity <dbl>,
#   Fruits <dbl>, Veggies <dbl>, HvyAlcoholConsump <dbl>, AnyHealthcare <dbl>,
#   NoDocbcCost <dbl>, GenHlth <dbl>, MentHlth <dbl>, PhysHlth <dbl>,
#   DiffWalk <dbl>, Sex <dbl>, Age <dbl>, Education <dbl>, Income <dbl>
…
levels(diabetes_data$DiffWalk) <- list("No difficulty walking" = "0", "Difficulty walking" = "1")

levels(diabetes_data$Sex) <- list("Female" = "0", "Male" = "1")

levels(diabetes_data$Age) <- list("18-24" = "1", "25-29" = "2", "30-34" = "3", "35-39" = "4", "40-44" = "5", "45-49" = "6", "50-54" = "7", "55-59" = "8", "60-64" = "9", "65-69" = "10", "70-74" = "11", "75-79" = "12", "80+" = "13")

levels(diabetes_data$Education) <- list("No school/kindergarten" = "1", "Elementary" = "2", "Some high school" = "3", "High school graduate" = "4", "Some college" = "5", "College graduate" = "6")

levels(diabetes_data$Income) <- list("< $10,000" = "1", "$10,000-$15,000" = "2", "$15,000-$20,000" = "3", "$20,000-$25,000" = "4", "$25,000-$35,000" = "5", "$35,000-$50,000" = "6", "$50,000-$75,000" = "7", "$75,000+" = "8")

# reexamine the data after changing variables to factors and renaming the levels of the factors
diabetes_data

# A tibble: 253,680 × 22
   Diabetes_binary      HighBP            HighChol CholCheck   BMI Smoker Stroke
   <fct>                <fct>             <fct>    <fct>     <dbl> <fct>  <fct> 
 1 No Diabetes          High Blood Press… High Ch… Chol. ch…    40 Smoker Never…
 2 No Diabetes          No High Blood Pr… No High… No Chol.…    25 Smoker Never…
 3 No Diabetes          High Blood Press… High Ch… Chol. ch…    28 Non-S… Never…
 4 No Diabetes          High Blood Press… No High… Chol. ch…    27 Non-S… Never…
 5 No Diabetes          High Blood Press… High Ch… Chol. ch…    24 Non-S… Never…
 6 No Diabetes          High Blood Press… High Ch… Chol. ch…    25 Smoker Never…
 7 No Diabetes          High Blood Press… No High… Chol. ch…    30 Smoker Never…
 8 No Diabetes          High Blood Press… High Ch… Chol. ch…    25 Smoker Never…
 9 Prediabetes/Diabetes High Blood Press… High Ch… Chol. ch…    30 Smoker Never…
10 No Diabetes          No High Blood Pr… No High… Chol. ch…    24 Non-S… Never…
# ℹ 253,670 more rows
# ℹ 15 more variables: HeartDiseaseorAttack <fct>, PhysActivity <fct>,
#   Fruits <fct>, Veggies <fct>, HvyAlcoholConsump <fct>, AnyHealthcare <fct>,
#   NoDocbcCost <fct>, GenHlth <fct>, MentHlth <dbl>, PhysHlth <dbl>,
#   DiffWalk <fct>, Sex <fct>, Age <fct>, Education <fct>, Income <fct>
…
