ST 558 Final Project - Modeling
…
# split the data into a 70/20 training/test split
diabetes_split <- initial_split(diabetes_data, prop = 0.70)

# save the 70% split as training
diabetes_train <- training(diabetes_split)

# save the 30% split as testing
diabetes_test <- testing(diabetes_split)

# view the training and testing sets
diabetes_train

# A tibble: 177,576 × 22
   Diabetes_binary      HighBP            HighChol CholCheck   BMI Smoker Stroke
   <fct>                <fct>             <fct>    <fct>     <dbl> <fct>  <fct> 
 1 No Diabetes          High Blood Press… High Ch… Chol. ch…    27 Non-S… Never…
 2 No Diabetes          No High Blood Pr… No High… Chol. ch…    27 Smoker Never…
 3 No Diabetes          No High Blood Pr… No High… Chol. ch…    31 Smoker Never…
 4 Prediabetes/Diabetes High Blood Press… High Ch… Chol. ch…    34 Smoker Never…
 5 Prediabetes/Diabetes No High Blood Pr… High Ch… Chol. ch…    28 Smoker Never…
 6 No Diabetes          No High Blood Pr… No High… Chol. ch…    27 Non-S… Never…
 7 No Diabetes          High Blood Press… No High… Chol. ch…    20 Non-S… Never…
 8 No Diabetes          No High Blood Pr… No High… Chol. ch…    27 Smoker Never…
 9 No Diabetes          High Blood Press… No High… Chol. ch…    38 Non-S… Never…
10 No Diabetes          No High Blood Pr… No High… Chol. ch…    26 Non-S… Never…
# ℹ 177,566 more rows
# ℹ 15 more variables: HeartDiseaseorAttack <fct>, PhysActivity <fct>,
#   Fruits <fct>, Veggies <fct>, HvyAlcoholConsump <fct>, AnyHealthcare <fct>,
#   NoDocbcCost <fct>, GenHlth <fct>, MentHlth <dbl>, PhysHlth <dbl>,
#   DiffWalk <fct>, Sex <fct>, Age <fct>, Education <fct>, Income <fct>

diabetes_test

# A tibble: 76,104 × 22
   Diabetes_binary      HighBP            HighChol CholCheck   BMI Smoker Stroke
   <fct>                <fct>             <fct>    <fct>     <dbl> <fct>  <fct> 
 1 No Diabetes          High Blood Press… No High… Chol. ch…    30 Smoker Never…
 2 Prediabetes/Diabetes High Blood Press… High Ch… Chol. ch…    30 Smoker Never…
 3 Prediabetes/Diabetes No High Blood Pr… No High… Chol. ch…    25 Smoker Never…
 4 No Diabetes          No High Blood Pr… High Ch… Chol. ch…    33 Smoker Had s…
 5 No Diabetes          No High Blood Pr… No High… No Chol.…    23 Non-S… Never…
 6 No Diabetes          No High Blood Pr… High Ch… Chol. ch…    28 Non-S… Never…
 7 No Diabetes          High Blood Press… High Ch… Chol. ch…    22 Non-S… Had s…
 8 No Diabetes          High Blood Press… High Ch… Chol. ch…    38 Smoker Never…
 9 No Diabetes          High Blood Press… No High… Chol. ch…    33 Smoker Never…
10 Prediabetes/Diabetes High Blood Press… High Ch… Chol. ch…    24 Smoker Never…
# ℹ 76,094 more rows
# ℹ 15 more variables: HeartDiseaseorAttack <fct>, PhysActivity <fct>,
#   Fruits <fct>, Veggies <fct>, HvyAlcoholConsump <fct>, AnyHealthcare <fct>,
#   NoDocbcCost <fct>, GenHlth <fct>, MentHlth <dbl>, PhysHlth <dbl>,
#   DiffWalk <fct>, Sex <fct>, Age <fct>, Education <fct>, Income <fct>
…
Number of variables by role

outcome:   1
predictor: 7

── Operations 

• Dummy variables from: all_factor() -Diabetes_binary

# view results
recipe |> 
  prep(training = diabetes_train) |> 
  bake(diabetes_train)

# A tibble: 177,576 × 11
     BMI Diabetes_binary      HighBP_High.Blood.Pressure HighChol_High.Cholest…¹
   <dbl> <fct>                                     <dbl>                   <dbl>
 1    27 No Diabetes                                   1                       1
 2    27 No Diabetes                                   0                       0
 3    31 No Diabetes                                   0                       0
 4    34 Prediabetes/Diabetes                          1                       1
 5    28 Prediabetes/Diabetes                          0                       1
 6    27 No Diabetes                                   0                       0
 7    20 No Diabetes                                   1                       0
 8    27 No Diabetes                                   0                       0
 9    38 No Diabetes                                   1                       0
10    26 No Diabetes                                   0                       0
# ℹ 177,566 more rows
# ℹ abbreviated name: ¹​HighChol_High.Cholesterol
# ℹ 7 more variables: Veggies_Eats.veggies <dbl>, GenHlth_Very.Good <dbl>,
#   GenHlth_Good <dbl>, GenHlth_Fair <dbl>, GenHlth_Poor <dbl>,
#   DiffWalk_Difficulty.walking <dbl>, AnyHealthcare_Healthcare <dbl>
…
